6 ISA 2: measures of dispersion and visualizing relationships – R for the PPL(E)
…
From this interval/ratio level variable, we will create ordinal categories using the base::cut function, as below:

wd$mobile_recode<-cut(x = wd$wef_mobile, breaks = c(0,50,100,150,max(wd$wef_mobile,na.rm=TRUE)), labels = FALSE)

We supply our input data via the x, we give our category breakpoints with breaks, and we set labels to FALSE which means that R will give us simple numerical labels for the output. We request here bins of values from 0 up to to and including 50, from greater than 50 up to and including 100 … and so on, up to the maximum value in wef_mobile. This function also automatically leaves any NA as they are, so we do not need to provide any extra input to handle these.

We can compare these variables side-by-side to check that our recode worked as intended:

wd %>% 
  dplyr::select(wef_mobile, mobile_recode) %>% 
  print(., n = 25) # use this to show more than the default 10 rows of the data after the selection 

# A tibble: 194 × 2
   wef_mobile mobile_recode
        <dbl>         <int>
 1       NA              NA
 2      124.              3
 3      114.              3
 4      132.              3
 5      115.              3
 6       NA              NA
 7       NA              NA
 8      120.              3
 9      139.              3
10      119.              3
11       NA              NA
12      130.              3
13       51.9             2
14       NA              NA
15       NA              NA
16      133.              3
17      135.              3
18       NA              NA
19      135.              3
20      110.              3
21       NA              NA
22       NA              NA
23       NA              NA
24      146.              3
25       NA              NA
# ℹ 169 more rows
…
